{
	"creatures": ["blue-buff", "camp-1", "camp-2", "camp-3", "camp-4", "camp-5", "camp-6", "camp-7", "camp-8", "core",
		"green-buff", "inhibitor", "tower",
		"mid-buff", "minion-melee", "minion-ranged",
		"minion-siege", "minion-super", "prime-guardian", "prime-guardians-underling", "prime-spirit-earth", "prime-spirit-fire",
		"prime-spirit-water", "prime-spirit-wind", "purple-buff", "red-buff"]
}